<svg width="92" height="20" viewBox="0 0 92 20" fill="none" xmlns="http://www.w3.org/2000/svg">
<rect width="92" height="20" rx="2" fill="#44CC11"/>
<path d="M0 2C0 0.895431 0.895431 0 2 0H64V20H2C0.895431 20 0 19.1046 0 18V2Z" fill="#555555"/>
<path d="M17.3516 10.0526L16.1968 10.2571C16.1485 10.1094 16.0718 9.96875 15.9667 9.83523C15.8644 9.7017 15.7252 9.59233 15.549 9.5071C15.3729 9.42187 15.1527 9.37926 14.8885 9.37926C14.5277 9.37926 14.2266 9.46023 13.9851 9.62216C13.7436 9.78125 13.6229 9.98722 13.6229 10.2401C13.6229 10.4588 13.7039 10.6349 13.8658 10.7685C14.0277 10.902 14.2891 11.0114 14.6499 11.0966L15.6897 11.3352C16.2919 11.4744 16.7408 11.6889 17.0363 11.9787C17.3317 12.2685 17.4794 12.6449 17.4794 13.108C17.4794 13.5 17.3658 13.8494 17.1385 14.1562C16.9141 14.4602 16.6002 14.6989 16.1968 14.8722C15.7962 15.0455 15.3317 15.1321 14.8033 15.1321C14.0704 15.1321 13.4723 14.9759 13.0093 14.6634C12.5462 14.348 12.2621 13.9006 12.157 13.321L13.3885 13.1335C13.4652 13.4545 13.6229 13.6974 13.8615 13.8622C14.1002 14.0241 14.4113 14.1051 14.7948 14.1051C15.2124 14.1051 15.5462 14.0185 15.7962 13.8452C16.0462 13.669 16.1712 13.4545 16.1712 13.2017C16.1712 12.9972 16.0945 12.8253 15.9411 12.6861C15.7905 12.5469 15.559 12.4418 15.2465 12.3707L14.1385 12.1278C13.5277 11.9886 13.076 11.767 12.7834 11.4631C12.4936 11.1591 12.3488 10.7741 12.3488 10.3082C12.3488 9.92187 12.4567 9.58381 12.6726 9.29403C12.8885 9.00426 13.1868 8.77841 13.5675 8.61648C13.9482 8.4517 14.3843 8.36932 14.8758 8.36932C15.5831 8.36932 16.14 8.52273 16.5462 8.82955C16.9525 9.13352 17.2209 9.54119 17.3516 10.0526ZM21.9358 8.45455V9.47727H18.3605V8.45455H21.9358ZM19.3193 6.88636H20.5934V13.0781C20.5934 13.3253 20.6304 13.5114 20.7042 13.6364C20.7781 13.7585 20.8733 13.8423 20.9897 13.8878C21.1091 13.9304 21.2383 13.9517 21.3775 13.9517C21.4798 13.9517 21.5693 13.9446 21.646 13.9304C21.7227 13.9162 21.7824 13.9048 21.825 13.8963L22.0551 14.9489C21.9812 14.9773 21.8761 15.0057 21.7397 15.0341C21.6034 15.0653 21.4329 15.0824 21.2284 15.0852C20.8932 15.0909 20.5807 15.0312 20.2909 14.9062C20.0011 14.7812 19.7667 14.5881 19.5878 14.3267C19.4088 14.0653 19.3193 13.7372 19.3193 13.3423V6.88636ZM23.3452 15V8.45455H24.5767V9.49432H24.6449C24.7642 9.14205 24.9745 8.86506 25.2756 8.66335C25.5796 8.45881 25.9233 8.35653 26.3069 8.35653C26.3864 8.35653 26.4802 8.35937 26.5881 8.36506C26.6989 8.37074 26.7856 8.37784 26.8481 8.38636V9.60511C26.7969 9.59091 26.706 9.57528 26.5753 9.55824C26.4446 9.53835 26.314 9.52841 26.1833 9.52841C25.8821 9.52841 25.6137 9.59233 25.3779 9.72017C25.1449 9.84517 24.9603 10.0199 24.8239 10.2443C24.6875 10.4659 24.6194 10.7187 24.6194 11.0028V15H23.3452ZM28.9553 17.4545C28.765 17.4545 28.5917 17.4389 28.4354 17.4077C28.2792 17.3793 28.1627 17.348 28.086 17.3139L28.3928 16.2699C28.6258 16.3324 28.8331 16.3594 29.015 16.3509C29.1968 16.3423 29.3573 16.2741 29.4965 16.1463C29.6385 16.0185 29.7635 15.8097 29.8715 15.5199L30.0292 15.0852L27.6343 8.45455H28.9979L30.6556 13.5341H30.7238L32.3814 8.45455H33.7493L31.0519 15.8736C30.9269 16.2145 30.7678 16.5028 30.5746 16.7386C30.3814 16.9773 30.1513 17.1563 29.8843 17.2756C29.6172 17.3949 29.3076 17.4545 28.9553 17.4545ZM36.1186 12.7798L36.1101 11.2244H36.3317L38.9397 8.45455H40.4652L37.4908 11.608H37.2905L36.1186 12.7798ZM34.9468 15V6.27273H36.2209V15H34.9468ZM39.0803 15L36.7365 11.8892L37.6144 10.9986L40.6442 15H39.0803ZM44.178 15.1321C43.5331 15.1321 42.9777 14.9943 42.5118 14.7188C42.0487 14.4403 41.6907 14.0497 41.4379 13.5469C41.1879 13.0412 41.0629 12.4489 41.0629 11.7699C41.0629 11.0994 41.1879 10.5085 41.4379 9.99716C41.6907 9.4858 42.043 9.08665 42.4947 8.79972C42.9493 8.51278 43.4805 8.36932 44.0885 8.36932C44.4578 8.36932 44.8157 8.4304 45.1623 8.55256C45.5089 8.67472 45.82 8.86648 46.0956 9.12784C46.3711 9.3892 46.5885 9.72869 46.7476 10.1463C46.9066 10.5611 46.9862 11.0653 46.9862 11.6591V12.1108H41.7831V11.1562H45.7376C45.7376 10.821 45.6694 10.5241 45.5331 10.2656C45.3967 10.0043 45.2049 9.7983 44.9578 9.64773C44.7135 9.49716 44.4265 9.42188 44.097 9.42188C43.739 9.42188 43.4265 9.50994 43.1595 9.68608C42.8953 9.85937 42.6907 10.0866 42.5459 10.3679C42.4038 10.6463 42.3328 10.9489 42.3328 11.2756V12.0213C42.3328 12.4588 42.4095 12.831 42.5629 13.1378C42.7191 13.4446 42.9365 13.679 43.2149 13.8409C43.4933 14 43.8186 14.0795 44.1907 14.0795C44.4322 14.0795 44.6524 14.0455 44.8512 13.9773C45.0501 13.9062 45.222 13.8011 45.3669 13.6619C45.5118 13.5227 45.6226 13.3509 45.6993 13.1463L46.9052 13.3636C46.8086 13.7187 46.6353 14.0298 46.3853 14.2969C46.1382 14.5611 45.8271 14.767 45.4521 14.9148C45.0799 15.0597 44.6552 15.1321 44.178 15.1321ZM48.3999 15V8.45455H49.6314V9.49432H49.6996C49.8189 9.14205 50.0292 8.86506 50.3303 8.66335C50.6343 8.45881 50.978 8.35653 51.3615 8.35653C51.4411 8.35653 51.5348 8.35937 51.6428 8.36506C51.7536 8.37074 51.8402 8.37784 51.9027 8.38636V9.60511C51.8516 9.59091 51.7607 9.57528 51.63 9.55824C51.4993 9.53835 51.3686 9.52841 51.238 9.52841C50.9368 9.52841 50.6684 9.59233 50.4326 9.72017C50.1996 9.84517 50.015 10.0199 49.8786 10.2443C49.7422 10.4659 49.674 10.7187 49.674 11.0028V15H48.3999Z" fill="#010101" fill-opacity="0.3"/>
<path d="M17.3516 9.05256L16.1968 9.2571C16.1485 9.10937 16.0718 8.96875 15.9667 8.83523C15.8644 8.7017 15.7252 8.59233 15.549 8.5071C15.3729 8.42187 15.1527 8.37926 14.8885 8.37926C14.5277 8.37926 14.2266 8.46023 13.9851 8.62216C13.7436 8.78125 13.6229 8.98722 13.6229 9.24006C13.6229 9.45881 13.7039 9.63494 13.8658 9.76847C14.0277 9.90199 14.2891 10.0114 14.6499 10.0966L15.6897 10.3352C16.2919 10.4744 16.7408 10.6889 17.0363 10.9787C17.3317 11.2685 17.4794 11.6449 17.4794 12.108C17.4794 12.5 17.3658 12.8494 17.1385 13.1562C16.9141 13.4602 16.6002 13.6989 16.1968 13.8722C15.7962 14.0455 15.3317 14.1321 14.8033 14.1321C14.0704 14.1321 13.4723 13.9759 13.0093 13.6634C12.5462 13.348 12.2621 12.9006 12.157 12.321L13.3885 12.1335C13.4652 12.4545 13.6229 12.6974 13.8615 12.8622C14.1002 13.0241 14.4113 13.1051 14.7948 13.1051C15.2124 13.1051 15.5462 13.0185 15.7962 12.8452C16.0462 12.669 16.1712 12.4545 16.1712 12.2017C16.1712 11.9972 16.0945 11.8253 15.9411 11.6861C15.7905 11.5469 15.559 11.4418 15.2465 11.3707L14.1385 11.1278C13.5277 10.9886 13.076 10.767 12.7834 10.4631C12.4936 10.1591 12.3488 9.77415 12.3488 9.30824C12.3488 8.92187 12.4567 8.58381 12.6726 8.29403C12.8885 8.00426 13.1868 7.77841 13.5675 7.61648C13.9482 7.4517 14.3843 7.36932 14.8758 7.36932C15.5831 7.36932 16.14 7.52273 16.5462 7.82955C16.9525 8.13352 17.2209 8.54119 17.3516 9.05256ZM21.9358 7.45455V8.47727H18.3605V7.45455H21.9358ZM19.3193 5.88636H20.5934V12.0781C20.5934 12.3253 20.6304 12.5114 20.7042 12.6364C20.7781 12.7585 20.8733 12.8423 20.9897 12.8878C21.1091 12.9304 21.2383 12.9517 21.3775 12.9517C21.4798 12.9517 21.5693 12.9446 21.646 12.9304C21.7227 12.9162 21.7824 12.9048 21.825 12.8963L22.0551 13.9489C21.9812 13.9773 21.8761 14.0057 21.7397 14.0341C21.6034 14.0653 21.4329 14.0824 21.2284 14.0852C20.8932 14.0909 20.5807 14.0312 20.2909 13.9062C20.0011 13.7812 19.7667 13.5881 19.5878 13.3267C19.4088 13.0653 19.3193 12.7372 19.3193 12.3423V5.88636ZM23.3452 14V7.45455H24.5767V8.49432H24.6449C24.7642 8.14205 24.9745 7.86506 25.2756 7.66335C25.5796 7.45881 25.9233 7.35653 26.3069 7.35653C26.3864 7.35653 26.4802 7.35937 26.5881 7.36506C26.6989 7.37074 26.7856 7.37784 26.8481 7.38636V8.60511C26.7969 8.59091 26.706 8.57528 26.5753 8.55824C26.4446 8.53835 26.314 8.52841 26.1833 8.52841C25.8821 8.52841 25.6137 8.59233 25.3779 8.72017C25.1449 8.84517 24.9603 9.01989 24.8239 9.24432C24.6875 9.46591 24.6194 9.71875 24.6194 10.0028V14H23.3452ZM28.9553 16.4545C28.765 16.4545 28.5917 16.4389 28.4354 16.4077C28.2792 16.3793 28.1627 16.348 28.086 16.3139L28.3928 15.2699C28.6258 15.3324 28.8331 15.3594 29.015 15.3509C29.1968 15.3423 29.3573 15.2741 29.4965 15.1463C29.6385 15.0185 29.7635 14.8097 29.8715 14.5199L30.0292 14.0852L27.6343 7.45455H28.9979L30.6556 12.5341H30.7238L32.3814 7.45455H33.7493L31.0519 14.8736C30.9269 15.2145 30.7678 15.5028 30.5746 15.7386C30.3814 15.9773 30.1513 16.1563 29.8843 16.2756C29.6172 16.3949 29.3076 16.4545 28.9553 16.4545ZM36.1186 11.7798L36.1101 10.2244H36.3317L38.9397 7.45455H40.4652L37.4908 10.608H37.2905L36.1186 11.7798ZM34.9468 14V5.27273H36.2209V14H34.9468ZM39.0803 14L36.7365 10.8892L37.6144 9.99858L40.6442 14H39.0803ZM44.178 14.1321C43.5331 14.1321 42.9777 13.9943 42.5118 13.7188C42.0487 13.4403 41.6907 13.0497 41.4379 12.5469C41.1879 12.0412 41.0629 11.4489 41.0629 10.7699C41.0629 10.0994 41.1879 9.50852 41.4379 8.99716C41.6907 8.4858 42.043 8.08665 42.4947 7.79972C42.9493 7.51278 43.4805 7.36932 44.0885 7.36932C44.4578 7.36932 44.8157 7.4304 45.1623 7.55256C45.5089 7.67472 45.82 7.86648 46.0956 8.12784C46.3711 8.3892 46.5885 8.72869 46.7476 9.14631C46.9066 9.56108 46.9862 10.0653 46.9862 10.6591V11.1108H41.7831V10.1562H45.7376C45.7376 9.82102 45.6694 9.52415 45.5331 9.26562C45.3967 9.00426 45.2049 8.7983 44.9578 8.64773C44.7135 8.49716 44.4265 8.42188 44.097 8.42188C43.739 8.42188 43.4265 8.50994 43.1595 8.68608C42.8953 8.85937 42.6907 9.08665 42.5459 9.3679C42.4038 9.64631 42.3328 9.94886 42.3328 10.2756V11.0213C42.3328 11.4588 42.4095 11.831 42.5629 12.1378C42.7191 12.4446 42.9365 12.679 43.2149 12.8409C43.4933 13 43.8186 13.0795 44.1907 13.0795C44.4322 13.0795 44.6524 13.0455 44.8512 12.9773C45.0501 12.9062 45.222 12.8011 45.3669 12.6619C45.5118 12.5227 45.6226 12.3509 45.6993 12.1463L46.9052 12.3636C46.8086 12.7187 46.6353 13.0298 46.3853 13.2969C46.1382 13.5611 45.8271 13.767 45.4521 13.9148C45.0799 14.0597 44.6552 14.1321 44.178 14.1321ZM48.3999 14V7.45455H49.6314V8.49432H49.6996C49.8189 8.14205 50.0292 7.86506 50.3303 7.66335C50.6343 7.45881 50.978 7.35653 51.3615 7.35653C51.4411 7.35653 51.5348 7.35937 51.6428 7.36506C51.7536 7.37074 51.8402 7.37784 51.9027 7.38636V8.60511C51.8516 8.59091 51.7607 8.57528 51.63 8.55824C51.4993 8.53835 51.3686 8.52841 51.238 8.52841C50.9368 8.52841 50.6684 8.59233 50.4326 8.72017C50.1996 8.84517 50.015 9.01989 49.8786 9.24432C49.7422 9.46591 49.674 9.71875 49.674 10.0028V14H48.3999Z" fill="white"/>
<g clip-path="url(#clip0_27_2)">
<mask id="mask0_27_2" style="mask-type:luminance" maskUnits="userSpaceOnUse" x="70" y="2" width="16" height="16">
<path d="M70 2H86V18H70V2Z" fill="white"/>
</mask>
<g mask="url(#mask0_27_2)">
<path d="M86 10C86 14.4187 82.4187 18 78 18C73.5813 18 70 14.4187 70 10C70 5.58233 73.5813 2 78 2C82.4187 2 86 5.58134 86 10Z" fill="#E74C3C"/>
<path fill-rule="evenodd" clip-rule="evenodd" d="M78.5416 17.9797L76.3276 15.7657L78.8845 14.6134L79.8173 13.7501V13.0442L76.997 10.2239L76.5141 8.17174L75.9654 5.88916L78.7287 4.98052L81.8145 6.27325L85.9862 10.434C85.7702 14.4695 82.5633 17.7103 78.5415 17.9797H78.5416Z" fill="black" fill-opacity="0.3"/>
<path d="M78.2678 5.61591C78.7264 5.61591 79.0862 5.70183 79.3423 5.8952C79.6011 6.09284 79.7999 6.3775 79.9478 6.74129L80.0757 7.05591L81.8945 6.41744L81.7394 6.06485C81.4465 5.39917 81.0272 4.87297 80.4861 4.4845C79.9449 4.0958 79.1973 3.88861 78.2381 3.88861C77.6809 3.88861 77.1885 3.96949 76.7592 4.12499C76.3192 4.28598 75.9461 4.50677 75.6372 4.78628C75.3207 5.0738 75.0815 5.41245 74.9184 5.80356C74.757 6.1882 74.6759 6.59961 74.6759 7.03703C74.6759 7.83308 74.9027 8.49986 75.3472 9.04197C75.7711 9.5606 76.4264 10.0081 77.3209 10.3731C77.7847 10.5648 78.1848 10.7366 78.5196 10.8888C78.8181 11.0244 79.0606 11.1754 79.2456 11.3469C79.4135 11.5027 79.5365 11.6825 79.6147 11.8875C79.6994 12.1093 79.7372 12.3889 79.7372 12.7259C79.7372 13.0334 79.6905 13.2943 79.5879 13.5075C79.491 13.7091 79.3666 13.8716 79.2091 13.9928C79.0481 14.1174 78.8638 14.2087 78.6671 14.2612C78.4573 14.3191 78.2407 14.3486 78.023 14.349C77.7008 14.349 77.4262 14.3115 77.198 14.231C76.9773 14.1541 76.7903 14.0539 76.6355 13.9293C76.486 13.8086 76.3615 13.6686 76.2651 13.5092C76.1623 13.3416 76.0776 13.1636 76.0124 12.9781L75.8921 12.6337L74.118 13.2987L74.2357 13.6292C74.3509 13.95 74.506 14.2551 74.6973 14.5373C74.8971 14.8351 75.1507 15.101 75.4603 15.3355C75.7643 15.5669 76.1286 15.7549 76.552 15.8956C76.9665 16.0347 77.4518 16.1059 78.0066 16.1059C78.5553 16.1059 79.0581 16.0146 79.5167 15.8357C79.9801 15.655 80.3775 15.4077 80.7111 15.0973C81.0461 14.7864 81.3143 14.4107 81.4994 13.9929C81.6888 13.5697 81.7838 13.1215 81.7838 12.6513C81.7838 12.055 81.692 11.5498 81.5182 11.1334C81.3394 10.708 81.0984 10.347 80.7945 10.0492C80.4985 9.75923 80.1551 9.5133 79.7645 9.31204C79.384 9.11772 78.9935 8.94358 78.5947 8.79034C78.2004 8.64307 77.8724 8.49843 77.6077 8.35665C77.3645 8.22639 77.1686 8.09097 77.02 7.94732C76.8946 7.82507 76.8024 7.68735 76.7487 7.53393C76.6894 7.36384 76.6612 7.16707 76.6612 6.94595C76.6612 6.49734 76.7852 6.16109 77.0682 5.95237C77.3803 5.72389 77.7813 5.61591 78.2678 5.61591Z" fill="#F1C40F"/>
<path fill-rule="evenodd" clip-rule="evenodd" d="M77.9012 2H78.0988V3.24005H77.9012V2ZM86 10.0988V9.90123H84.7599V10.0988H86ZM77.9012 16.7599H78.0988V18H77.9012V16.7599ZM71.2401 10.0988V9.90123H70V10.0988H71.2401Z" fill="black"/>
</g>
</g>
<defs>
<clipPath id="clip0_27_2">
<rect width="16" height="16" fill="white" transform="translate(70 2)"/>
</clipPath>
</defs>
</svg>
